Color Brighness Difference,Color Difference,Luminosity Contrast Ratio,Deuteranomaly ,Protanomaly
LOW,LOW,LOW,PASS,PASS
Very Low,Very Low,Very Low,FAIL,FAIL
LOW,LOW,LOW,PASS,PASS
Very Low,Very Low,Very Low,FAIL,FAIL
Very Low,Very Low,Very Low,PASS,PASS
LOW,Very Low,LOW,PASS,PASS
Very Low,LOW,Very Low,PASS,PASS
Very Low,Very Low,LOW,PASS,PASS
Very Low,Very Low,Very Low,PASS,PASS
Very Low,Very Low,Very Low,PASS,PASS
Very Low,Very Low,Very Low,PASS,PASS
Very Low,Very Low,Very Low,FAIL,FAIL
LOW,LOW,NORMAL,PASS,PASS
Very Low,Very Low,Very Low,FAIL,PASS
LOW,Very Low,LOW,PASS,PASS
Very Low,Very Low,Very Low,FAIL,FAIL
NORMAL,LOW,NORMAL,PASS,PASS
Very Low,Very Low,Very Low,PASS,PASS
NORMAL,LOW,NORMAL,PASS,PASS
Very Low,Very Low,Very Low,FAIL,FAIL
LOW,LOW,NORMAL,PASS,PASS
LOW,LOW,NORMAL,PASS,PASS
Very Low,Very Low,Very Low,PASS,FAIL
Very Low,Very Low,Very Low,FAIL,PASS
Very Low,LOW,Very Low,PASS,PASS
Very Low,LOW,Very Low,PASS,PASS
Very Low,Very Low,Very Low,PASS,PASS
Very Low,Very Low,Very Low,PASS,PASS
Very Low,Very Low,Very Low,PASS,PASS
Very Low,Very Low,Very Low,PASS,PASS
Very Low,Very Low,Very Low,PASS,PASS
LOW,Very Low,LOW,PASS,PASS
Very Low,Very Low,Very Low,PASS,PASS
LOW,LOW,LOW,PASS,PASS
Very Low,Very Low,Very Low,PASS,PASS
Very Low,Very Low,Very Low,PASS,PASS
LOW,LOW,LOW,PASS,PASS
Very Low,Very Low,Very Low,PASS,PASS
LOW,LOW,LOW,PASS,PASS
Very Low,Very Low,Very Low,FAIL,FAIL
Very Low,LOW,Very Low,FAIL,PASS
LOW,LOW,LOW,PASS,PASS
Very Low,Very Low,Very Low,PASS,PASS
LOW,LOW,LOW,PASS,PASS
Very Low,Very Low,Very Low,PASS,PASS
Very Low,Very Low,Very Low,FAIL,PASS
Very Low,Very Low,Very Low,FAIL,FAIL
Very Low,LOW,Very Low,PASS,PASS
Very Low,Very Low,Very Low,PASS,PASS
LOW,LOW,LOW,PASS,PASS
